<?xml version="1.0" encoding="utf-8"?>
<!-- Generator: Adobe Illustrator 24.1.3, SVG Export Plug-In . SVG Version: 6.00 Build 0)  -->
<svg version="1.1" id="Layer_1" xmlns="http://www.w3.org/2000/svg" xmlns:xlink="http://www.w3.org/1999/xlink" x="0px" y="0px"
	 viewBox="0 0 94.7 73.7" style="enable-background:new 0 0 94.7 73.7;" xml:space="preserve">
<style type="text/css">
	.st0{fill:#DD372A;}
</style>
<g id="Layer_1_1_">
	<path id="XMLID_8_" class="st0" d="M89.6,64.5L52.1,4.2c-1-1.5-2.9-2.5-4.8-2.5s-3.9,1-4.8,2.5L5,64.5c-1,1.6-1,3.5,0,5.2
		c1,1.6,2.9,2.5,4.8,2.5h74.9c2,0,3.9-1,4.8-2.5C90.6,68.2,90.6,66.2,89.6,64.5z"/>
</g>
<g id="Layer_2_1_">
</g>
</svg>
